\beamer@sectionintoc {1}{Learning Outcomes}{3}{0}{1}
\beamer@sectionintoc {2}{Free Software Foundation}{4}{0}{2}
\beamer@sectionintoc {3}{Copyleft}{5}{0}{3}
\beamer@sectionintoc {4}{Four Freedoms}{6}{0}{4}
\beamer@sectionintoc {5}{Questions}{7}{0}{5}
\beamer@sectionintoc {6}{References}{8}{0}{6}
\beamer@sectionintoc {7}{Thank you}{9}{0}{7}
