\relax 
\providecommand\hyper@newdestlabel[2]{}
\providecommand\BKM@entry[2]{}
\providecommand\HyperFirstAtBeginDocument{\AtBeginDocument}
\HyperFirstAtBeginDocument{\ifx\hyper@anchor\@undefined
\global\let\oldcontentsline\contentsline
\gdef\contentsline#1#2#3#4{\oldcontentsline{#1}{#2}{#3}}
\global\let\oldnewlabel\newlabel
\gdef\newlabel#1#2{\newlabelxx{#1}#2}
\gdef\newlabelxx#1#2#3#4#5#6{\oldnewlabel{#1}{{#2}{#3}}}
\AtEndDocument{\ifx\hyper@anchor\@undefined
\let\contentsline\oldcontentsline
\let\newlabel\oldnewlabel
\fi}
\fi}
\global\let\hyper@last\relax 
\gdef\HyperFirstAtBeginDocument#1{#1}
\providecommand\HyField@AuxAddToFields[1]{}
\providecommand\HyField@AuxAddToCoFields[2]{}
\providecommand \oddpage@label [2]{}
\@writefile{nav}{\headcommand {\slideentry {0}{0}{1}{1/1}{}{0}}}
\@writefile{nav}{\headcommand {\beamer@framepages {1}{1}}}
\@writefile{nav}{\headcommand {\slideentry {0}{0}{2}{2/2}{}{0}}}
\@writefile{nav}{\headcommand {\beamer@framepages {2}{2}}}
\BKM@entry{id=1,open,dest={4F75746C696E65302E31},srcline={182}}{4C6561726E696E67204F7574636F6D6573}
\@writefile{toc}{\beamer@sectionintoc {1}{Learning Outcomes}{3}{0}{1}}
\@writefile{nav}{\headcommand {\beamer@sectionpages {1}{2}}}
\@writefile{nav}{\headcommand {\beamer@subsectionpages {1}{2}}}
\@writefile{nav}{\headcommand {\sectionentry {1}{Learning Outcomes}{3}{Learning Outcomes}{0}}}
\@writefile{nav}{\headcommand {\slideentry {1}{0}{1}{3/3}{}{0}}}
\@writefile{nav}{\headcommand {\beamer@framepages {3}{3}}}
\BKM@entry{id=2,open,dest={4F75746C696E65302E32},srcline={199}}{4672656520536F66747761726520466F756E646174696F6E}
\@writefile{toc}{\beamer@sectionintoc {2}{Free Software Foundation}{4}{0}{2}}
\@writefile{nav}{\headcommand {\beamer@sectionpages {3}{3}}}
\@writefile{nav}{\headcommand {\beamer@subsectionpages {3}{3}}}
\@writefile{nav}{\headcommand {\sectionentry {2}{Free Software Foundation}{4}{Free Software Foundation}{0}}}
\@writefile{nav}{\headcommand {\slideentry {2}{0}{1}{4/4}{}{0}}}
\@writefile{nav}{\headcommand {\beamer@framepages {4}{4}}}
\BKM@entry{id=3,open,dest={4F75746C696E65302E33},srcline={214}}{436F70796C656674}
\@writefile{toc}{\beamer@sectionintoc {3}{Copyleft}{5}{0}{3}}
\@writefile{nav}{\headcommand {\beamer@sectionpages {4}{4}}}
\@writefile{nav}{\headcommand {\beamer@subsectionpages {4}{4}}}
\@writefile{nav}{\headcommand {\sectionentry {3}{Copyleft}{5}{Copyleft}{0}}}
\@writefile{nav}{\headcommand {\slideentry {3}{0}{1}{5/5}{}{0}}}
\@writefile{nav}{\headcommand {\beamer@framepages {5}{5}}}
\BKM@entry{id=4,open,dest={4F75746C696E65302E34},srcline={225}}{466F75722046726565646F6D73}
\@writefile{toc}{\beamer@sectionintoc {4}{Four Freedoms}{6}{0}{4}}
\@writefile{nav}{\headcommand {\beamer@sectionpages {5}{5}}}
\@writefile{nav}{\headcommand {\beamer@subsectionpages {5}{5}}}
\@writefile{nav}{\headcommand {\sectionentry {4}{Four Freedoms}{6}{Four Freedoms}{0}}}
\@writefile{nav}{\headcommand {\slideentry {4}{0}{1}{6/6}{}{0}}}
\@writefile{nav}{\headcommand {\beamer@framepages {6}{6}}}
\BKM@entry{id=5,open,dest={4F75746C696E65302E35},srcline={240}}{5175657374696F6E73}
\@writefile{toc}{\beamer@sectionintoc {5}{Questions}{7}{0}{5}}
\@writefile{nav}{\headcommand {\beamer@sectionpages {6}{6}}}
\@writefile{nav}{\headcommand {\beamer@subsectionpages {6}{6}}}
\@writefile{nav}{\headcommand {\sectionentry {5}{Questions}{7}{Questions}{0}}}
\@writefile{nav}{\headcommand {\slideentry {5}{0}{1}{7/7}{}{0}}}
\@writefile{nav}{\headcommand {\beamer@framepages {7}{7}}}
\BKM@entry{id=6,open,dest={4F75746C696E65302E36},srcline={250}}{5265666572656E636573}
\@writefile{toc}{\beamer@sectionintoc {6}{References}{8}{0}{6}}
\@writefile{nav}{\headcommand {\beamer@sectionpages {7}{7}}}
\@writefile{nav}{\headcommand {\beamer@subsectionpages {7}{7}}}
\@writefile{nav}{\headcommand {\sectionentry {6}{References}{8}{References}{0}}}
\@writefile{nav}{\headcommand {\slideentry {6}{0}{1}{8/8}{}{0}}}
\@writefile{nav}{\headcommand {\beamer@framepages {8}{8}}}
\BKM@entry{id=7,open,dest={4F75746C696E65302E37},srcline={264}}{5468616E6B20796F75}
\@writefile{toc}{\beamer@sectionintoc {7}{Thank you}{9}{0}{7}}
\@writefile{nav}{\headcommand {\beamer@sectionpages {8}{8}}}
\@writefile{nav}{\headcommand {\beamer@subsectionpages {8}{8}}}
\@writefile{nav}{\headcommand {\sectionentry {7}{Thank you}{9}{Thank you}{0}}}
\@writefile{nav}{\headcommand {\slideentry {7}{0}{1}{9/9}{}{0}}}
\@writefile{nav}{\headcommand {\beamer@framepages {9}{9}}}
\@writefile{nav}{\headcommand {\beamer@partpages {1}{9}}}
\@writefile{nav}{\headcommand {\beamer@subsectionpages {9}{9}}}
\@writefile{nav}{\headcommand {\beamer@sectionpages {9}{9}}}
\@writefile{nav}{\headcommand {\beamer@documentpages {9}}}
\@writefile{nav}{\headcommand {\gdef \inserttotalframenumber {9}}}
